{ "height":16,
 "infinite":false,
 "layers":[
        {
         "data":[0, 0, 0, 0, 0, 0, 0, 0, 0, 0, 0, 0, 0, 0, 0, 0, 0, 0, 0, 0, 0, 0, 0, 0, 0, 0, 0, 0, 0, 0, 0, 0, 0, 0, 0, 0, 0, 0, 0, 0, 0, 0, 0, 0, 0, 22, 23, 0, 0, 0, 0, 0, 0, 0, 0, 0, 0, 0, 0, 0, 0, 47, 48, 0, 0, 0, 0, 0, 0, 0, 0, 0, 0, 0, 0, 0, 0, 72, 73, 0, 0, 0, 0, 0, 22, 22, 23, 0, 0, 0, 0, 0, 0, 0, 0, 0, 0, 0, 0, 0, 47, 47, 48, 0, 0, 0, 0, 0, 0, 0, 0, 0, 0, 0, 0, 0, 72, 72, 73, 0, 0, 0, 0, 0, 0, 0, 0, 0, 0, 0, 0, 0, 0, 0, 0, 0, 0, 0, 0, 0, 0, 0, 0, 0, 0, 0, 0, 0, 0, 0, 0, 0, 0, 0, 0, 0, 0, 0, 0, 0, 0, 0, 0, 0, 0, 0, 0, 0, 0, 0, 0, 0, 0, 0, 0, 0, 0, 0, 0, 0, 0, 0, 0, 0, 0, 0, 0, 0, 0, 0, 0, 0, 0, 0, 0, 0, 0, 0, 0, 0, 0, 0, 0, 0, 0, 0, 0, 0, 0, 0, 0, 0, 0, 0, 0, 0, 0, 0, 0, 0, 0, 0, 0, 0, 0, 0, 0, 0, 0, 0, 0, 0, 0, 0, 0, 0, 0, 0, 0, 0, 0, 0, 0, 0, 0, 0, 0, 0, 0, 0, 0, 0, 0, 0, 0, 0],
         "height":16,
         "name":"Decor",
         "opacity":1,
         "type":"tilelayer",
         "visible":true,
         "width":16,
         "x":0,
         "y":0
        }, 
        {
         "data":[42, 42, 42, 42, 42, 42, 42, 42, 42, 42, 42, 42, 42, 42, 42, 42, 42, 22, 23, 22, 22, 22, 23, 22, 23, 0, 0, 0, 0, 22, 23, 42, 42, 22, 23, 47, 47, 22, 23, 23, 48, 23, 42, 0, 0, 42, 23, 42, 42, 22, 22, 47, 17, 23, 17, 48, 48, 48, 0, 22, 22, 22, 23, 42, 42, 22, 23, 17, 42, 17, 42, 17, 47, 48, 17, 47, 47, 17, 23, 42, 42, 22, 23, 17, 42, 42, 42, 17, 47, 48, 23, 17, 17, 47, 48, 42, 42, 22, 22, 17, 42, 42, 42, 17, 47, 48, 23, 47, 48, 47, 48, 42, 42, 47, 47, 47, 17, 42, 17, 47, 48, 47, 48, 17, 0, 47, 48, 42, 42, 0, 22, 23, 0, 17, 0, 47, 48, 17, 48, 17, 23, 17, 0, 42, 42, 0, 22, 22, 22, 22, 22, 22, 22, 22, 17, 42, 17, 0, 0, 42, 42, 0, 22, 23, 23, 23, 23, 23, 23, 68, 42, 68, 42, 23, 0, 42, 42, 0, 22, 23, 48, 48, 48, 48, 68, 48, 17, 42, 17, 23, 0, 42, 42, 0, 22, 22, 22, 22, 22, 68, 22, 17, 47, 47, 48, 17, 0, 42, 42, 0, 47, 47, 47, 47, 47, 68, 23, 47, 47, 48, 0, 23, 23, 42, 42, 0, 0, 0, 0, 0, 0, 68, 0, 0, 0, 0, 0, 48, 0, 42, 42, 42, 42, 42, 42, 42, 42, 42, 42, 42, 42, 42, 42, 42, 42, 42],
         "height":16,
         "name":"Ground",
         "opacity":1,
         "type":"tilelayer",
         "visible":true,
         "width":16,
         "x":0,
         "y":0
        }, 
        {
         "data":[0, 0, 0, 0, 0, 0, 0, 0, 0, 0, 0, 0, 0, 0, 0, 0, 0, 0, 0, 0, 0, 0, 0, 0, 0, 0, 0, 0, 0, 0, 424, 0, 0, 0, 0, 0, 0, 0, 0, 0, 0, 0, 0, 0, 0, 0, 0, 0, 0, 424, 0, 0, 0, 0, 0, 0, 0, 0, 0, 0, 0, 0, 0, 0, 0, 0, 0, 0, 0, 0, 0, 0, 0, 0, 0, 0, 0, 0, 0, 0, 0, 0, 0, 0, 0, 0, 0, 0, 0, 0, 0, 0, 0, 0, 0, 0, 0, 0, 0, 0, 0, 0, 0, 0, 0, 0, 0, 0, 0, 0, 0, 0, 0, 0, 0, 0, 0, 0, 0, 0, 0, 0, 0, 0, 0, 0, 0, 0, 0, 0, 0, 0, 0, 0, 0, 0, 0, 0, 0, 0, 0, 0, 0, 0, 0, 0, 0, 0, 0, 0, 0, 0, 0, 0, 0, 0, 0, 0, 0, 0, 0, 0, 0, 0, 0, 0, 0, 0, 0, 0, 0, 0, 0, 0, 0, 0, 0, 0, 0, 0, 0, 0, 0, 0, 0, 0, 0, 0, 0, 0, 0, 0, 0, 0, 0, 0, 0, 0, 0, 0, 0, 0, 0, 0, 0, 0, 0, 0, 0, 0, 0, 0, 0, 0, 0, 0, 0, 0, 0, 0, 0, 0, 0, 0, 0, 0, 0, 0, 0, 0, 424, 0, 0, 0, 0, 0, 0, 0, 424, 0, 0, 0, 0, 0, 0, 0, 0, 0, 0, 0, 0, 0, 0, 0, 0, 0],
         "height":16,
         "name":"Spawn",
         "opacity":1,
         "type":"tilelayer",
         "visible":true,
         "width":16,
         "x":0,
         "y":0
        }, 
        {
         "data":[0, 0, 0, 0, 0, 0, 0, 0, 0, 0, 0, 0, 0, 0, 0, 0, 0, 0, 0, 0, 0, 0, 0, 595, 0, 0, 0, 0, 0, 0, 0, 0, 0, 0, 0, 0, 0, 0, 0, 595, 0, 0, 0, 0, 0, 0, 0, 0, 0, 0, 0, 0, 0, 0, 0, 595, 0, 0, 0, 0, 0, 0, 0, 0, 0, 0, 0, 0, 0, 0, 0, 0, 0, 0, 0, 0, 0, 0, 0, 0, 0, 0, 0, 0, 0, 0, 0, 0, 0, 0, 595, 0, 0, 0, 0, 0, 0, 0, 0, 0, 0, 0, 0, 0, 595, 595, 0, 0, 0, 595, 595, 0, 0, 0, 0, 0, 0, 0, 0, 595, 0, 595, 0, 0, 0, 595, 0, 0, 0, 0, 0, 595, 0, 0, 0, 0, 0, 0, 595, 0, 0, 0, 0, 0, 0, 0, 595, 0, 0, 0, 0, 0, 0, 0, 0, 0, 0, 0, 0, 0, 0, 595, 0, 0, 0, 0, 0, 0, 0, 0, 0, 0, 0, 0, 0, 0, 0, 0, 0, 0, 0, 0, 0, 0, 0, 0, 0, 0, 0, 0, 0, 0, 0, 0, 0, 0, 0, 0, 0, 0, 0, 0, 0, 0, 0, 0, 0, 0, 0, 0, 0, 0, 0, 0, 0, 0, 0, 0, 0, 0, 0, 0, 0, 0, 0, 0, 0, 0, 0, 0, 0, 0, 0, 0, 0, 0, 0, 0, 0, 0, 0, 0, 0, 0, 0, 0, 0, 0, 0, 0, 0, 0, 0, 0, 0, 0],
         "height":16,
         "name":"Bonus",
         "opacity":1,
         "type":"tilelayer",
         "visible":true,
         "width":16,
         "x":0,
         "y":0
        }],
 "nextobjectid":1,
 "orientation":"orthogonal",
 "renderorder":"right-down",
 "tiledversion":"1.1.2",
 "tileheight":16,
 "tilesets":[
        {
         "columns":25,
         "firstgid":1,
         "image":"..\/tiles\/battle_city.png",
         "imageheight":256,
         "imagewidth":400,
         "margin":0,
         "name":"Atlas",
         "spacing":0,
         "tilecount":400,
         "tileheight":16,
         "tileproperties":
            {
             "16":
                {
                 "cassable":true
                },
             "41":
                {
                 "cassable":false
                }
            },
         "tilepropertytypes":
            {
             "16":
                {
                 "cassable":"bool"
                },
             "41":
                {
                 "cassable":"bool"
                }
            },
         "tilewidth":16
        }, 
        {
         "columns":25,
         "firstgid":401,
         "image":"..\/tiles\/battle_city.png",
         "imageheight":256,
         "imagewidth":400,
         "margin":0,
         "name":"Atlas",
         "spacing":0,
         "tilecount":400,
         "tileheight":16,
         "tileproperties":
            {
             "16":
                {
                 "cassable":true
                },
             "41":
                {
                 "cassable":false
                },
             "66":
                {
                 "cassable":false
                }
            },
         "tilepropertytypes":
            {
             "16":
                {
                 "cassable":"bool"
                },
             "41":
                {
                 "cassable":"bool"
                },
             "66":
                {
                 "cassable":"bool"
                }
            },
         "tilewidth":16
        }],
 "tilewidth":16,
 "type":"map",
 "version":1,
 "width":16
}